Functions and data wrangling
…
---

## distinct

Remove duplicate rows

.pull-left[

```r
penguins %>%
  select(species, sex)
```

```
## # A tibble: 344 × 2
##    species sex   
##    <fct>   <fct> 
##  1 Adelie  male  
##  2 Adelie  female
##  3 Adelie  female
##  4 Adelie  <NA>  
##  5 Adelie  female
##  6 Adelie  male  
##  7 Adelie  female
##  8 Adelie  male  
##  9 Adelie  <NA>  
## 10 Adelie  <NA>  
## # … with 334 more rows
```
…
